<?xml version="1.0" encoding="utf-8"?>
<!-- Generator: Adobe Illustrator 16.0.4, SVG Export Plug-In . SVG Version: 6.00 Build 0)  -->
<!DOCTYPE svg PUBLIC "-//W3C//DTD SVG 1.1//EN" "http://www.w3.org/Graphics/SVG/1.1/DTD/svg11.dtd">
<svg version="1.1" id="Layer_1" xmlns="http://www.w3.org/2000/svg" xmlns:xlink="http://www.w3.org/1999/xlink" x="0px" y="0px"
	 width="80.661px" height="25.292px" viewBox="0 0 80.661 25.292" enable-background="new 0 0 80.661 25.292" xml:space="preserve">
<g>
	<path fill="#F89641" d="M18.136,8.926h-1.205v-2.43C16.931,2.854,14.092,0,10.468,0H9.675C6.077,0,3.363,2.793,3.363,6.496v2.43
		H2.73C1.225,8.926,0,10.15,0,11.655v10.907c0,1.505,1.225,2.729,2.73,2.729h15.405c1.506,0,2.73-1.225,2.73-2.729V11.655
		C20.866,10.15,19.642,8.926,18.136,8.926z M5.707,6.496c0-2.406,1.669-4.153,3.968-4.153h0.793c2.349,0,4.12,1.786,4.12,4.153v2.43
		H5.707V6.496z M18.523,22.562c0,0.209-0.178,0.387-0.388,0.387H2.73c-0.21,0-0.388-0.178-0.388-0.387V11.655
		c0-0.21,0.178-0.387,0.388-0.387h15.405c0.21,0,0.388,0.177,0.388,0.387V22.562z"/>
	<path fill="#F89641" d="M10.434,14.18c-0.981,0.001-1.775,0.797-1.777,1.774c0.001,0.664,0.37,1.236,0.911,1.545v1.826
		c0,0.579,0.385,1.055,0.968,1.055s0.97-0.476,0.97-1.055v-1.963c0.425-0.322,0.703-0.833,0.703-1.408
		C12.211,14.977,11.415,14.181,10.434,14.18z"/>
</g>
<g>
	<path fill="#F89641" d="M35.646,8.855c0-0.368,0.161-0.528,0.483-0.528h0.161c0.321,0,0.506,0.16,0.506,0.528v13.359h7.289
		c0.348,0,0.529,0.162,0.529,0.48v0.096c0,0.299-0.185,0.479-0.529,0.479h-8.438L35.646,8.855L35.646,8.855z"/>
	<path fill="#F89641" d="M46.124,17.823c0-3.241,2.301-5.656,5.565-5.656c3.22,0,5.542,2.438,5.542,5.702
		c0,3.221-2.322,5.635-5.542,5.635C48.424,23.503,46.124,21.066,46.124,17.823z M56.127,17.869c0-2.666-1.862-4.736-4.438-4.736
		s-4.461,2.023-4.461,4.69c0,2.669,1.886,4.714,4.461,4.714C54.241,22.537,56.127,20.537,56.127,17.869z"/>
	<path fill="#F89641" d="M59.563,17.801c0-3.22,2.3-5.634,5.542-5.634c1.815,0,3.035,0.667,3.771,1.402
		c0.576,0.575,0.828,1.22,0.828,1.541c0,0.507-0.666,0.599-0.713,0.552c-0.506-1.311-1.633-2.529-3.887-2.529
		c-2.6,0-4.438,2.023-4.438,4.668c0,2.69,1.813,4.714,4.438,4.714c2.254,0,3.381-1.195,3.887-2.508
		c0.047-0.067,0.713,0.047,0.713,0.553c0,0.322-0.252,0.943-0.852,1.564c-0.734,0.732-1.954,1.379-3.748,1.379
		C61.863,23.503,59.563,21.066,59.563,17.801z"/>
	<path fill="#F89641" d="M72.635,7.798c0-0.046,0.16-0.115,0.367-0.115c0.392,0,0.733,0.207,0.733,1.081v8.646l4.97-4.646
		c0.92-0.92,1.354-0.138,1.311,0.092l-5.059,4.622l5.703,5.289c0.021,0.229-0.369,1.081-1.312,0.138l-5.611-5.241v5.609h-1.104
		V7.798H72.635z"/>
</g>
</svg>
