<?xml version="1.0" encoding="utf-8"?>
<!-- Generator: Adobe Illustrator 16.0.4, SVG Export Plug-In . SVG Version: 6.00 Build 0)  -->
<!DOCTYPE svg PUBLIC "-//W3C//DTD SVG 1.1//EN" "http://www.w3.org/Graphics/SVG/1.1/DTD/svg11.dtd">
<svg version="1.1" id="Layer_1" xmlns="http://www.w3.org/2000/svg" xmlns:xlink="http://www.w3.org/1999/xlink" x="0px" y="0px"
	 width="120.48px" height="22.92px" viewBox="0 0 120.48 22.92" enable-background="new 0 0 120.48 22.92" xml:space="preserve">
<path fill="#1998D3" d="M21.245,14.991c0.222-0.223,0.353-0.52,0.354-0.833c0.003-0.318-0.122-0.617-0.346-0.843l-3.206-3.233
	c-0.223-0.227-0.52-0.352-0.836-0.352h-0.007c-0.004,0-0.008,0.002-0.012,0.002c-0.006,0-0.014-0.002-0.021-0.002
	c-0.315,0-0.612,0.122-0.84,0.341L13.1,13.276c-0.47,0.463-0.472,1.211-0.01,1.678c0.446,0.447,1.226,0.451,1.676,0.007l1.337-1.323
	v8.211c0,0.592,0.479,1.071,1.067,1.071s1.066-0.479,1.066-1.071v-8.207l1.327,1.342C20.015,15.431,20.796,15.435,21.245,14.991z
	 M31.36,9.404c-0.192-3.388-3.024-6.086-6.478-6.086c-0.648,0-1.298,0.103-1.927,0.305C21.922,1.426,19.726,0,17.261,0
	c-3.19,0-5.843,2.361-6.274,5.421c-0.342-0.06-0.758-0.112-1.215-0.112c-1.92,0-3.299,0.954-4.019,2.77
	C5.66,8.057,5.559,8.041,5.452,8.041C2.445,8.041,0,10.477,0,13.472c0,2.989,2.445,5.424,5.452,5.424h0.512l8.319-0.004v-1.594
	l-8.831,0.004c-2.129,0-3.86-1.72-3.86-3.83c0-2.104,1.714-3.818,3.822-3.838C5.46,9.646,5.508,9.666,5.555,9.683
	c0.176,0.066,0.377,0.14,0.606,0.14c0.437,0,0.791-0.266,0.91-0.68C7.512,7.613,8.369,6.9,9.771,6.9c0.513,0,0.979,0.093,1.32,0.161
	c0.231,0.047,0.396,0.078,0.555,0.078c0.001,0,0.001,0,0.001,0c0.542,0,0.867-0.422,0.867-0.829c0-2.602,2.129-4.717,4.743-4.717
	c2.055,0,3.858,1.326,4.491,3.3l0.274,0.857l0.814-0.378c0.661-0.306,1.352-0.461,2.042-0.461c2.688,0,4.872,2.16,4.896,4.823
	c-0.013,0.064-0.021,0.131-0.023,0.196l-0.021,0.625l0.602,0.171c1.452,0.412,2.466,1.734,2.466,3.218
	c0,1.685-1.317,3.146-3.014,3.348l-9.88,0.004v1.594l9.924-0.007l0.084-0.004c2.553-0.271,4.479-2.394,4.479-4.935
	C34.392,11.963,33.173,10.176,31.36,9.404z"/>
<g>
	<path fill="#1998D3" d="M48.327,3.885c0-0.392,0.276-0.69,0.667-0.69h4.714c3.174,0,4.829,1.356,4.829,3.794
		c0,1.702-0.988,2.852-2.852,3.335c2.392,0.414,3.542,1.748,3.542,3.679c0,2.76-1.771,4.07-5.358,4.07h-5.542V3.885z M53.777,9.955
		c2.254,0,3.562-1.149,3.562-2.897c0-1.862-1.193-2.828-3.634-2.828h-4.229v5.726L53.777,9.955L53.777,9.955z M53.847,17.037
		c2.874,0,4.185-0.873,4.185-3.081c0-2.023-1.402-2.989-4.139-2.989h-4.415v6.07H53.847z"/>
	<path fill="#1998D3" d="M61.718,15.312c0-2.459,2.395-3.495,7.864-3.562h0.23v-0.553c0-2.046-1.242-3.219-3.334-3.219
		c-1.889,0-3.104,0.896-3.702,2.069c-0.023,0-0.621-0.068-0.621-0.644c0-0.23,0.229-0.69,0.621-1.058
		c0.688-0.69,1.908-1.38,3.771-1.38c2.717,0,4.35,1.587,4.35,4.208v6.896h-1.081V15.91c-0.714,1.401-2.323,2.39-4.324,2.39
		C63.167,18.302,61.718,17.13,61.718,15.312z M69.812,13.703v-1.081h-0.299c-4.737,0.093-6.672,0.852-6.672,2.689
		c0,1.289,1.061,2.068,2.736,2.068C67.95,17.383,69.812,15.772,69.812,13.703z"/>
	<path fill="#1998D3" d="M73.77,12.601c0-3.221,2.3-5.635,5.542-5.635c1.813,0,3.035,0.667,3.771,1.402
		c0.575,0.575,0.828,1.219,0.828,1.541c0,0.506-0.667,0.598-0.713,0.552c-0.506-1.311-1.633-2.529-3.887-2.529
		c-2.602,0-4.438,2.023-4.438,4.668c0,2.688,1.816,4.713,4.438,4.713c2.254,0,3.381-1.194,3.887-2.506
		c0.046-0.068,0.713,0.045,0.713,0.551c0,0.322-0.253,0.943-0.852,1.562c-0.735,0.734-1.954,1.381-3.748,1.381
		C76.069,18.302,73.77,15.864,73.77,12.601z"/>
	<path fill="#1998D3" d="M86.841,2.597c0-0.046,0.161-0.115,0.368-0.115c0.394,0,0.735,0.207,0.735,1.081v8.646l4.967-4.646
		c0.92-0.92,1.357-0.138,1.312,0.092l-5.062,4.622l5.703,5.289c0.022,0.229-0.368,1.082-1.311,0.141l-5.611-5.242v5.607H86.84
		L86.841,2.597L86.841,2.597z"/>
	<path fill="#1998D3" d="M96.881,13.45V7.195h1.104v6.186c0,2.392,1.173,3.888,3.312,3.888c1.816,0,3.176-1.013,3.843-2.554v-7.52
		h1.104v10.832c0,0.021-0.184,0.115-0.391,0.115c-0.368,0-0.689-0.207-0.689-1.104V16.05c-0.736,1.287-2.093,2.254-3.933,2.254
		C98.353,18.302,96.881,16.371,96.881,13.45z"/>
	<path fill="#1998D3" d="M109.902,7.241c0-0.022,0.161-0.114,0.368-0.114c0.391,0,0.713,0.207,0.713,1.104v1.195
		c0.873-1.472,2.273-2.46,4.322-2.46c2.896,0,5.175,2.276,5.175,5.635c0,3.379-2.208,5.701-5.243,5.701
		c-2.188,0-3.68-1.195-4.231-2.438v6.576h-1.104V7.241z M119.376,12.601c0-2.688-1.793-4.667-4.185-4.667
		c-2.093,0-3.521,1.195-4.208,2.966v2.505c0,2.187,1.839,3.934,4.162,3.934C117.675,17.336,119.376,15.405,119.376,12.601z"/>
</g>
</svg>
