<?xml version="1.0" encoding="utf-8"?>
<!-- Generator: Adobe Illustrator 16.0.4, SVG Export Plug-In . SVG Version: 6.00 Build 0)  -->
<!DOCTYPE svg PUBLIC "-//W3C//DTD SVG 1.1//EN" "http://www.w3.org/Graphics/SVG/1.1/DTD/svg11.dtd">
<svg version="1.1" id="Layer_1" xmlns="http://www.w3.org/2000/svg" xmlns:xlink="http://www.w3.org/1999/xlink" x="0px" y="0px"
	 width="99.121px" height="24.486px" viewBox="-5.426 0 99.121 24.486" enable-background="new -5.426 0 99.121 24.486"
	 xml:space="preserve">
<path fill="#F89641" d="M20.234,11.277L9.762,0.821C9.669,0.728,8.987,0.024,7.831,0.03S5.992,0.728,5.899,0.821L-4.623,11.363
	c-0.978,0.976-1.059,2.501-0.264,3.582l1.253-1.254v8.006c0,1.521,1.237,2.76,2.76,2.76h4.178c1.522,0,2.761-1.237,2.761-2.76
	v-4.023c0.011-0.204,0.183-0.372,0.389-0.372h2.752c0.207,0,0.377,0.168,0.387,0.372v4.023c0,1.521,1.238,2.76,2.76,2.76h4.183
	c1.521,0,2.76-1.237,2.76-2.76v-8.039l1.202,1.201C21.293,13.778,21.211,12.253,20.234,11.277z M16.927,21.696
	c0,0.211-0.179,0.391-0.392,0.391h-4.183c-0.201,0-0.366-0.162-0.384-0.358V17.69c0-1.521-1.238-2.76-2.76-2.76H9.206H6.453
	c-1.522,0-2.761,1.237-2.761,2.76v4.021c-0.01,0.205-0.182,0.375-0.388,0.375h-4.178c-0.212,0-0.392-0.18-0.392-0.391V11.318
	l9.099-9.109l9.093,9.083V21.696z"/>
<g>
	<path fill="#F89641" d="M34.268,5.937c0-0.34,0.159-0.522,0.478-0.522h0.158c0.318,0,0.5,0.183,0.5,0.522v6.353h9.395V5.937
		c0-0.34,0.159-0.522,0.476-0.522h0.159c0.34,0,0.499,0.183,0.499,0.522v14.226h-1.134v-6.829h-9.395v6.829h-1.135L34.268,5.937
		L34.268,5.937z"/>
	<path fill="#F89641" d="M49.243,14.786c0-3.199,2.269-5.582,5.49-5.582c3.178,0,5.47,2.405,5.47,5.626
		c0,3.178-2.292,5.56-5.47,5.56C51.512,20.389,49.243,17.985,49.243,14.786z M59.114,14.831c0-2.632-1.838-4.674-4.38-4.674
		c-2.541,0-4.4,1.997-4.4,4.629c0,2.633,1.859,4.65,4.4,4.65C57.252,19.436,59.114,17.464,59.114,14.831z"/>
	<path fill="#F89641" d="M63.311,9.476c0-0.022,0.158-0.113,0.362-0.113c0.386,0,0.704,0.204,0.704,1.089v0.931
		c0.703-1.315,2.042-2.178,3.585-2.178c1.905,0,3.199,0.977,3.698,2.52c0.657-1.498,2.063-2.52,3.901-2.52
		c2.655,0,4.13,1.656,4.13,4.628v6.33h-1.089v-6.262c0-2.36-1.09-3.676-3.107-3.676c-1.452,0-2.883,0.906-3.449,2.496v7.441h-1.089
		v-6.512c0-2.133-1.044-3.426-3.108-3.426c-1.43,0-2.837,0.93-3.449,2.473v7.464h-1.089V9.476z"/>
	<path fill="#F89641" d="M82.688,14.831c0-3.199,2.271-5.626,5.355-5.626c2.949,0,4.923,2.11,4.923,5.242v0.113
		c0,0.315-0.136,0.385-0.478,0.385h-8.734c0.046,2.656,1.838,4.471,4.425,4.471c2.246,0,3.29-1.09,3.835-2.155
		c0.067-0.046,0.635,0.112,0.635,0.637c0,0.227-0.204,0.68-0.681,1.156c-0.658,0.657-1.974,1.338-3.789,1.338
		C84.889,20.389,82.688,18.053,82.688,14.831z M83.8,14.014h8.032c-0.091-2.292-1.589-3.857-3.789-3.857
		C85.82,10.157,84.14,11.768,83.8,14.014z"/>
</g>
</svg>
